<?xml version="1.0" standalone="no"?>
<!DOCTYPE svg PUBLIC "-//W3C//DTD SVG 20010904//EN"
 "http://www.w3.org/TR/2001/REC-SVG-20010904/DTD/svg10.dtd">
<svg version="1.0" xmlns="http://www.w3.org/2000/svg"
 width="16.000000pt" height="16.000000pt" viewBox="0 0 16.000000 16.000000"
 preserveAspectRatio="xMidYMid meet">
<metadata>
Created by potrace 1.11, written by Peter Selinger 2001-2013
</metadata>
<g transform="translate(0.000000,16.000000) scale(0.006154,-0.006154)"
fill="#000000" stroke="none">
<path d="M448 1948 c38 -73 100 -191 137 -263 37 -71 91 -175 120 -230 29 -55
85 -163 125 -240 40 -77 99 -189 130 -250 31 -60 97 -186 145 -280 49 -93 96
-183 105 -200 16 -29 19 -30 101 -33 79 -2 85 -1 95 20 12 27 225 442 311 608
33 63 103 198 155 300 212 412 273 529 314 606 23 45 40 85 37 88 -4 3 -66 6
-139 6 l-132 0 -45 -82 c-24 -46 -100 -191 -168 -323 -67 -132 -162 -316 -211
-410 -48 -93 -116 -225 -150 -292 -35 -68 -65 -123 -68 -123 -3 0 -24 37 -48
83 -23 45 -71 136 -105 202 -35 66 -111 212 -169 325 -59 113 -134 257 -167
320 -34 63 -82 157 -108 208 l-48 92 -143 0 -143 0 69 -132z"/>
</g>
</svg>
