{
    "key": "group_5898a7bfb91df",
    "title": "Projekt",
    "fields": [
        {
            "key": "field_589af03218d5e",
            "label": "Byggherre",
            "name": "project_developer",
            "type": "text",
            "instructions": "",
            "required": 0,
            "conditional_logic": 0,
            "wrapper": {
                "width": "",
                "class": "",
                "id": ""
            },
            "default_value": "",
            "maxlength": "",
            "placeholder": "",
            "prepend": "",
            "append": ""
        },
        {
            "key": "field_5898a7c821b84",
            "label": "Projektsida",
            "name": "project_url",
            "type": "url",
            "instructions": "",
            "required": 0,
            "conditional_logic": 0,
            "wrapper": {
                "width": "",
                "class": "",
                "id": ""
            },
            "default_value": "",
            "placeholder": ""
        },
        {
            "key": "field_5898a84a21b86",
            "label": "Omfattning",
            "name": "project_scope",
            "type": "text",
            "instructions": "",
            "required": 0,
            "conditional_logic": 0,
            "wrapper": {
                "width": "",
                "class": "",
                "id": ""
            },
            "default_value": "",
            "maxlength": "",
            "placeholder": "",
            "prepend": "",
            "append": ""
        },
        {
            "key": "field_5899894ee9e16",
            "label": "Status",
            "name": "project_status",
            "type": "select",
            "instructions": "",
            "required": 1,
            "conditional_logic": 0,
            "wrapper": {
                "width": "",
                "class": "",
                "id": ""
            },
            "choices": {
                "upcoming": "Kommande",
                "soon": "Snart s\u00e4ljstart",
                "ongoing": "P\u00e5b\u00f6rjad",
                "soldout": "Sluts\u00e5lt",
                "rented": "Uthyrt"
            },
            "default_value": [

            ],
            "allow_null": 0,
            "multiple": 0,
            "ui": 0,
            "ajax": 0,
            "return_format": "array",
            "placeholder": ""
        },
        {
            "key": "field_58a46edc2f0a2",
            "label": "Inflytt",
            "name": "project_occupancy",
            "type": "text",
            "instructions": "",
            "required": 0,
            "conditional_logic": 0,
            "wrapper": {
                "width": "",
                "class": "",
                "id": ""
            },
            "default_value": "",
            "placeholder": "",
            "prepend": "",
            "append": "",
            "maxlength": ""
        },
        {
            "key": "field_5898a82f21b85",
            "label": "S\u00e4ljstart",
            "name": "project_start",
            "type": "date_picker",
            "instructions": "Anv\u00e4nds inte just nu.",
            "required": 0,
            "conditional_logic": 0,
            "wrapper": {
                "width": "",
                "class": "",
                "id": ""
            },
            "display_format": "m\/Y",
            "return_format": "F Y",
            "first_day": 1
        },
        {
            "key": "field_589af10ee9f53",
            "label": "Bild",
            "name": "project_image",
            "type": "image",
            "instructions": "Rekommenderad bildstorlek 1500px bred och 1000px h\u00f6g. F\u00e5r max v\u00e4ga 1mb.",
            "required": 1,
            "conditional_logic": 0,
            "wrapper": {
                "width": "",
                "class": "",
                "id": ""
            },
            "return_format": "id",
            "preview_size": "thumbnail",
            "library": "all",
            "min_width": 1000,
            "min_height": 800,
            "min_size": "",
            "max_width": "",
            "max_height": "",
            "max_size": 1,
            "mime_types": ""
        }
    ],
    "location": [
        [
            {
                "param": "post_type",
                "operator": "==",
                "value": "projects"
            }
        ]
    ],
    "menu_order": 0,
    "position": "normal",
    "style": "default",
    "label_placement": "top",
    "instruction_placement": "label",
    "hide_on_screen": "",
    "active": 1,
    "description": "",
    "modified": 1489483747
}