<?xml version="1.0" encoding="utf-8"?>
<!-- Generator: Adobe Illustrator 21.0.2, SVG Export Plug-In . SVG Version: 6.00 Build 0)  -->
<svg version="1.1" id="Lager_1" xmlns="http://www.w3.org/2000/svg" xmlns:xlink="http://www.w3.org/1999/xlink" x="0px" y="0px"
	 viewBox="0 0 150 54.7" style="enable-background:new 0 0 150 54.7;" xml:space="preserve">
<style type="text/css">
	.st0{fill:#FFFFFF;}
</style>
<g>
	<path class="st0" d="M41.9,5.1c-6.7,6.7-6.7,17.7,0,24.4c3.4,3.4,7.8,5,12.2,5c4.4,0,8.8-1.7,12.2-5c1.2-1.2,2.3-2.6,3.1-4.2
		l-4.7-2.5c-0.6,1.1-1.3,2-2.1,2.9c-2.3,2.3-5.3,3.5-8.5,3.5c-3.2,0-6.2-1.2-8.5-3.5c-1.6-1.6-2.7-3.6-3.2-5.7l28.9,0l0-2.6
		c0.1-4.7-1.7-9.1-5.1-12.4C59.6-1.6,48.7-1.6,41.9,5.1z M42.4,14.8c0.5-2.2,1.5-4.3,3.2-5.9c2.3-2.3,5.3-3.5,8.5-3.5
		c3.2,0,6.2,1.2,8.5,3.5c1.7,1.7,2.8,3.7,3.2,6L42.4,14.8z"/>
	<g>
		<path class="st0" d="M91.7,49.4c-6.6,0-12-5.4-12-12h-5.3c0,9.5,7.7,17.3,17.3,17.3S109,47,109,37.5h-5.3
			C103.7,44.1,98.3,49.4,91.7,49.4z"/>
		<path class="st0" d="M102.3,3.7c-2.9-2.3-6.6-3.6-10.6-3.6c-9.5,0-17.3,7.7-17.3,17.3s7.7,17.3,17.3,17.3S109,26.9,109,17.3
			c0-3.5-1-6.7-2.8-9.5c0.3-1.5,1.7-2.6,3.3-2.6V0C106.5,0,103.9,1.5,102.3,3.7z M91.7,29.3c-6.6,0-12-5.4-12-12s5.4-12,12-12
			c6.6,0,12,5.4,12,12S98.3,29.3,91.7,29.3z"/>
	</g>
	<path class="st0" d="M146.6,26v-8.3h0c0-0.1,0-0.3,0-0.4c0-9.5-7.7-17.3-17.3-17.3s-17.3,7.7-17.3,17.3s7.7,17.3,17.3,17.3
		c4.9,0,9.4-2.1,12.6-5.4c1.3,3.2,4.4,5.5,8.1,5.5v-5.3C148.2,29.3,146.6,27.8,146.6,26z M129.4,29.2c-6.6,0-12-5.4-12-12
		s5.4-12,12-12c6.6,0,12,5.4,12,12S136,29.2,129.4,29.2z"/>
	<polygon class="st0" points="38.6,0.4 32.9,0.4 19.5,26.2 6,0.4 0,0.4 17.8,34.4 21.3,34.4 38.8,0.5 	"/>
</g>
</svg>
